<?xml version="1.0" encoding="UTF-8"?>
<svg width="8px" height="6px" viewBox="0 0 8 6" version="1.1" xmlns="http://www.w3.org/2000/svg" xmlns:xlink="http://www.w3.org/1999/xlink">
    <!-- Generator: Sketch 53.2 (72643) - https://sketchapp.com -->
    <title>A</title>
    <desc>Created with Sketch.</desc>
    <g id="R03" stroke="none" stroke-width="1" fill="none" fill-rule="evenodd">
        <path d="M2.60504202,4.54747351e-13 L5.05042017,4.54747351e-13 L7.6302521,6 L5.48739496,6 L5.12605042,5.02521008 L2.50420168,5.02521008 L2.14285714,6 L-1.13686838e-13,6 L2.60504202,4.54747351e-13 Z M3.82352941,1.51260504 L3.80672269,1.51260504 L2.97478992,3.78151261 L4.65546218,3.78151261 L3.82352941,1.51260504 Z" id="A" fill="#000000"></path>
    </g>
</svg>