<?xml version="1.0" encoding="UTF-8"?>
<svg width="7px" height="6px" viewBox="0 0 7 6" version="1.1" xmlns="http://www.w3.org/2000/svg" xmlns:xlink="http://www.w3.org/1999/xlink">
    <!-- Generator: Sketch 53.2 (72643) - https://sketchapp.com -->
    <title>T</title>
    <desc>Created with Sketch.</desc>
    <g id="R03" stroke="none" stroke-width="1" fill="none" fill-rule="evenodd">
        <polygon id="T" fill="#000000" points="0 4.54747351e-13 6.40336134 4.54747351e-13 6.40336134 1.34453782 4.20168067 1.34453782 4.20168067 6 2.20168067 6 2.20168067 1.34453782 0 1.34453782"></polygon>
    </g>
</svg>