<?xml version="1.0" encoding="UTF-8"?>
<svg width="8px" height="7px" viewBox="0 0 8 7" version="1.1" xmlns="http://www.w3.org/2000/svg" xmlns:xlink="http://www.w3.org/1999/xlink">
    <!-- Generator: Sketch 53.2 (72643) - https://sketchapp.com -->
    <title>V</title>
    <desc>Created with Sketch.</desc>
    <g id="R03" stroke="none" stroke-width="1" fill="none" fill-rule="evenodd">
        <polygon id="V" fill="#000000" points="0.102425609 0.128385729 2.29570292 0.128385729 3.82511469 4.40569665 3.84192141 4.40569665 5.37133317 0.128385729 7.56461048 0.128385729 4.89234158 6.12838573 2.77469452 6.12838573"></polygon>
    </g>
</svg>