{
	"typeTags": [
		{
			"id": "featured",
			"title": "Featured"
		},
		{
			"id": null,
			"title": "All"
		}
	],

	"tags": [
		{
			"id": "video",
			"title": "Music Video",
			"glyph": "V"
		},
		{
			"id": "trailer",
			"title": "Preview/Teaser",
			"glyph": "T"
		},
		{
			"id": "absurda",
			"title": "Absurda",
			"glyph": "A"
		},
		{
			"id": "metropolis",
			"title": "Metropolis",
			"glyph": "M"
		},
		{
			"id": "performance",
			"title": "Performance",
			"glyph": "P"
		},
		{
			"id": "film",
			"title": "Film",
			"glyph": "F"
		}
	],

	"videos": [
		{
			"id": "003.018-027",
			"title": "ABSURDA",
			"subtitle": "All Ten Short Films",
			"tags": [
				"film",
				"featured",
				"video",
				"absurda"
			],
			"runtime": "00:41:21",
			"year": 2019,
			"image": "/content/003.018.jpg",
			"youtubeVideoId": "TR-okb3P6Nc",
			"externalLink": "http://metavari.com/watchabsurda"
		},
		{
			"id": "003.017",
			"title": "The Alphabet",
			"tags": [
				"video",
				"absurda"
			],
			"runtime": "00:03:44",
			"year": 2019,
			"image": "/content/003.017.jpg",
			"youtubeVideoId": "TR-okb3P6Nc",
			"label":"One Way Static",
			"description":"From the album, ABSURDA\nFilm; CA. 1968. © 2002 Absurda/David Lynch\nDirection: David Lynch"
		},
		{
			"id": "003.016",
			"title": "ABSURDA Album Preview",
			"tags": [
				"trailer",
				"absurda"
			],
			"runtime": "00:01:00",
			"year": 2019,
			"image": "/content/003.016.jpg",
			"youtubeVideoId": "HmCXGreEnso",
			"label":"One Way Static",
			"description":"Featuring the track: \"Premonitions Following an Evil Deed\""
		},
		{
			"id": "003.015",
			"title": "How Much Darker",
			"tags": [
				"featured",
				"video"
			],
			"runtime": "00:05:34",
			"year": 2018,
			"image": "/content/003.015.jpg",
			"youtubeVideoId": "ayQnscGbmfU",
			"label":"Mind Over Matter",
			"description":"From the 7-inch, \"How Much Darker\" b/w \"Street Smarts\"\nCinematography: Lewis McGregor"
		},
		{
			"id": "003.014",
			"title": "SPARK",
			"subtitle": "Contemporary Dance",
			"tags": [
				"featured",
				"performance"
			],
			"runtime": "00:02:03",
			"year": 2017,
			"image": "/content/003.014.jpg",
			"youtubeVideoId": "mC-bSc7vFDc",
			"label":"Contemporary Dance",
			"description":"Featuring the track: \"Assemblé en Miroir III\"\nChoreography: FWDC Touring Company\nCinematography: Kelly Lynch/Lynchpin Creative"
		},
		{
			"id": "003.013",
			"title": "Symmetri Album Teaser",
			"tags": [
				"featured",
				"trailer"
			],
			"runtime": "00:01:00",
			"year": 2017,
			"image": "/content/003.013.jpg",
			"youtubeVideoId": "3H-HT9RiQ64",
			"label":"One Way Static",
			"description":"Featuring the track: \"Assemblé en Miroir IV\""
		},
		{
			"id": "003.012",
			"title": "Witchhunt (feat. Daniel Weyandt)",
			"tags": [
				"featured",
				"video"
			],
			"runtime": "00:04:37",
			"year": 2017,
			"image": "/content/003.012.jpg",
			"youtubeVideoId": "WTZ6_97WtPw",
			"label":"One Way Static",
			"description":"From the album, Symmetri\nDirection, Cameras, Editing: Matt Thomas/Upper Valley"
		},
		{
			"id": "003.011",
			"title": "Metropolis",
			"subtitle":"Feature Film",
			"tags": [
				"featured",
				"film",
				"metropolis"
			],
			"runtime": "01:45:09",
			"year": 2017,
			"image": "/content/003.011.jpg",
			"youtubeVideoId": "ehttSScZpKM",
			"label":"One Way Static",
			"description":"Film; CA. 1927. © 1996 Friedrich-Wilhelm-Murnau-Stiftung\nDirection: Fritz Lang\nRestoration: Friedrich-Wilhelm-Murnau-Stiftung, Wiesbaden jointly with Deutsche Kinemathek – Museum für Film und Fernsehen, Berlin in co-operation with Museo del Cine Pablo C. Ducros Hicken, Buenos Aires"
		},
		{
			"id": "003.010",
			"title": "Metropolis Album Preview",
			"tags": [
				"trailer",
				"metropolis"
			],
			"runtime": "00:03:13",
			"year": 2017,
			"image": "/content/003.010.jpg",
			"youtubeVideoId": "MQ-xXKM7wH0",
			"label":"One Way Static"
		},
		{
			"id": "003.009",
			"title": "Metropolis Album Teaser",
			"tags": [
				"trailer",
				"metropolis"
			],
			"runtime": "00:00:47",
			"year": 2017,
			"image": "/content/003.009.jpg",
			"youtubeVideoId": "LBPzNQDJZog",
			"label":"One Way Static",
			"description":"Featuring the track: \"The New Tower (Joh I)\""
		},
		{
			"id": "003.008",
			"title": "Tetra A.D. Album Teaser",
			"tags": [
				"trailer"
			],
			"runtime": "00:00:54",
			"year": 2017,
			"image": "/content/003.008.jpg",
			"youtubeVideoId": "n5DLqotews8",
			"label":"Mind Over Matter",
			"description":"Featuring the track: \"Be What You See\""
		},
		{
			"id": "003.007",
			"title": "Futura, Parts 1 & 2",
			"tags": [
				"video",
				"metropolis"
			],
			"runtime": "00:05:31",
			"year": 2017,
			"image": "/content/003.007.jpg",
			"youtubeVideoId": "E8Ws3nWHBXM",
			"label":"One Way Static",
			"description":"From the album, Metropolis"
		},
		{
			"id": "003.006",
			"title": "Indigo",
			"tags": [
				"performance"
			],
			"runtime": "00:04:25",
			"year": 2017,
			"image": "/content/003.006.jpg",
			"youtubeVideoId": "JSIYyyH2nzk",
			"label":"Vital Shores",
			"description":"From the album, Metropolis\nEditing: Matt Thomas\nCameras: Matt Thomas, Mitch Colagrossi"
		},
		{
			"id": "003.005",
			"title": "Trouble",
			"tags": [
				"performance"
			],
			"runtime": "00:04:17",
			"year": 2017,
			"image": "/content/003.005.jpg",
			"youtubeVideoId": "ijhGFx8mjpM",
			"label":"One Way Static",
			"description":"From the album, Metropolis\nEditing: Matt Thomas\nCameras: Matt Thomas, Mitch Colagrossi"
		},
		{
			"id": "003.004",
			"title": "Oh Diane",
			"tags": [
				"video"
			],
			"runtime": "00:04:55",
			"year": 2015,
			"image": "/content/003.004.jpg",
			"youtubeVideoId": "nL0vFH21EZs",
			"label":"Mind Over Matter",
			"description":"From the 7-inch, \"Oh Diane\" b/w \"Josie's Lament (Mill Fire)\""
		},
		{
			"id": "003.003",
			"title": "Moonless Album Preview",
			"tags": [
				"trailer"
			],
			"runtime": "00:04:25",
			"year": 2015,
			"image": "/content/003.003.jpg",
			"youtubeVideoId": "fv0fjpm25fg",
			"label": "Vital Shores"
		},
		{
			"id": "003.002",
			"title": "Moonless Album Teaser",
			"tags": [
				"trailer"
			],
			"runtime": "00:02:34",
			"year": 2015,
			"image": "/content/003.002.jpg",
			"youtubeVideoId": "6gPNPWTvO-g",
			"label":"Vital Shores",
			"description":"Featuring the track: \"Epilogue Over Akaishi\"\nCinematography: Julian Whatley"
		},
		{
			"id": "003.001",
			"title": "Twilight Over Akaishi",
			"subtitle": "Live at Casa del Popolo - Montréal, QC",
			"tags": [
				"performance"
			],
			"runtime": "00:05:34",
			"year": 2011,
			"image": "/content/003.001.jpg",
			"youtubeVideoId": "kqmGzPmENas",
			"label":"Crossroads of America",
			"description":"Live at Casa del Popolo, Montréal, QC (09/05/2011)\nfrom the album, Be One of Us and Hear No Noise\nProduction: wearepostrock"
		}
	]
}